[gd_scene load_steps=6 format=2]

[ext_resource path="res://asset/diamonds/blue1.png" type="Texture" id=1]
[ext_resource path="res://asset/diamonds/blue2.png" type="Texture" id=2]
[ext_resource path="res://asset/diamonds/blue3.png" type="Texture" id=3]
[ext_resource path="res://asset/diamonds/blue4.png" type="Texture" id=4]

[sub_resource type="SpriteFrames" id=1]
animations = [ {
"frames": [ ExtResource( 1 ), ExtResource( 2 ), ExtResource( 3 ), ExtResource( 4 ) ],
"loop": true,
"name": "default",
"speed": 4.0
} ]

[node name="Node2D" type="Node2D"]

[node name="AnimatedSprite" type="AnimatedSprite" parent="."]
frames = SubResource( 1 )
frame = 1
playing = true
