[gd_scene load_steps=6 format=2]

[ext_resource path="res://asset/win_screen.png" type="Texture" id=1]
[ext_resource path="res://font_style/kongtext_32.tres" type="DynamicFont" id=2]
[ext_resource path="res://font_style/dialog_fontstyle.tres" type="DynamicFont" id=3]
[ext_resource path="res://script/Start.gd" type="Script" id=4]
[ext_resource path="res://scenes/music-victory.tscn" type="PackedScene" id=5]

[node name="Node2D" type="Node2D"]

[node name="TextureRect" type="TextureRect" parent="."]
margin_right = 1025.0
margin_bottom = 605.0
texture = ExtResource( 1 )

[node name="Label" type="Label" parent="."]
margin_top = 196.0
margin_right = 1022.0
margin_bottom = 596.0
custom_fonts/font = ExtResource( 2 )
text = "You win!"
align = 1
valign = 1

[node name="LinkButton" type="LinkButton" parent="."]
margin_left = 424.11
margin_top = 418.554
margin_right = 570.11
margin_bottom = 432.554
custom_fonts/font = ExtResource( 3 )
custom_colors/font_color = Color( 0, 0, 0, 1 )
text = "Go Back To Main Menu"
underline = 2
script = ExtResource( 4 )
scene_to_load = "titlescreen"

[node name="Node" parent="." instance=ExtResource( 5 )]
[connection signal="pressed" from="LinkButton" to="LinkButton" method="_on_Button_pressed"]
